Sat 13 Feb 17:09:00 CET 2021
Sat 13 Feb 17:09:31 CET 2021
Sat 13 Feb 17:10:01 CET 2021
Sat 13 Feb 17:10:31 CET 2021
Sat 13 Feb 17:10:34 CET 2021
Sat 13 Feb 17:11:01 CET 2021
Sat 13 Feb 17:11:04 CET 2021
Sat 13 Feb 17:11:31 CET 2021
Sat 13 Feb 17:11:34 CET 2021
Sat 13 Feb 17:12:01 CET 2021
Sat 13 Feb 17:12:04 CET 2021
Sat 13 Feb 17:12:31 CET 2021
Sat 13 Feb 17:12:34 CET 2021
Sat 13 Feb 17:13:01 CET 2021
Sat 13 Feb 17:13:04 CET 2021
Sat 13 Feb 17:13:31 CET 2021
Sat 13 Feb 17:13:34 CET 2021
Sat 13 Feb 17:14:01 CET 2021
Sat 13 Feb 17:14:04 CET 2021
Sat 13 Feb 17:14:31 CET 2021
Sat 13 Feb 17:14:34 CET 2021
Sat 13 Feb 17:15:01 CET 2021
Sat 13 Feb 17:15:04 CET 2021
Sat 13 Feb 17:15:31 CET 2021
Sat 13 Feb 17:15:34 CET 2021
Sat 13 Feb 17:16:01 CET 2021
Sat 13 Feb 17:16:04 CET 2021
Sat 13 Feb 17:16:31 CET 2021
Sat 13 Feb 17:16:34 CET 2021
Sat 13 Feb 17:17:01 CET 2021
Sat 13 Feb 17:17:04 CET 2021
Sat 13 Feb 17:17:31 CET 2021
Sat 13 Feb 17:17:34 CET 2021
Sat 13 Feb 17:18:01 CET 2021
Sat 13 Feb 17:18:04 CET 2021
Sat 13 Feb 17:18:31 CET 2021
Sat 13 Feb 17:18:34 CET 2021
Sat 13 Feb 17:19:01 CET 2021
Sat 13 Feb 17:19:04 CET 2021
Sat 13 Feb 17:19:31 CET 2021
Sat 13 Feb 17:19:34 CET 2021
Sat 13 Feb 17:20:01 CET 2021
Sat 13 Feb 17:20:04 CET 2021
Sat 13 Feb 17:20:31 CET 2021
Sat 13 Feb 17:20:34 CET 2021
Sat 13 Feb 17:21:01 CET 2021
Sat 13 Feb 17:21:04 CET 2021
Sat 13 Feb 17:21:31 CET 2021
Sat 13 Feb 17:21:34 CET 2021
Sat 13 Feb 17:22:01 CET 2021
Sat 13 Feb 17:22:04 CET 2021
Sat 13 Feb 17:22:31 CET 2021
Sat 13 Feb 17:22:34 CET 2021
Sat 13 Feb 17:23:01 CET 2021
Sat 13 Feb 17:23:04 CET 2021
Sat 13 Feb 17:23:31 CET 2021
Sat 13 Feb 17:23:34 CET 2021
Sat 13 Feb 17:24:01 CET 2021
Sat 13 Feb 17:24:04 CET 2021
Sat 13 Feb 17:24:31 CET 2021
Sat 13 Feb 17:24:34 CET 2021
Sat 13 Feb 17:25:01 CET 2021
Sat 13 Feb 17:25:04 CET 2021
Sat 13 Feb 17:25:31 CET 2021
Sat 13 Feb 17:25:34 CET 2021
Sat 13 Feb 17:26:01 CET 2021
Sat 13 Feb 17:26:04 CET 2021
Sat 13 Feb 17:26:31 CET 2021
Sat 13 Feb 17:26:34 CET 2021
Sat 13 Feb 17:27:01 CET 2021
Sat 13 Feb 17:27:04 CET 2021
Sat 13 Feb 17:27:31 CET 2021
Sat 13 Feb 17:27:34 CET 2021
Sat 13 Feb 17:28:01 CET 2021
Sat 13 Feb 17:28:04 CET 2021
Sat 13 Feb 17:28:31 CET 2021
Sat 13 Feb 17:28:34 CET 2021
Sat 13 Feb 17:29:01 CET 2021
Sat 13 Feb 17:29:04 CET 2021
Sat 13 Feb 17:29:31 CET 2021
Sat 13 Feb 17:29:34 CET 2021
Sat 13 Feb 17:30:01 CET 2021
Sat 13 Feb 17:30:04 CET 2021
Sat 13 Feb 17:30:31 CET 2021
Sat 13 Feb 17:30:34 CET 2021
Sat 13 Feb 17:31:01 CET 2021
Sat 13 Feb 17:31:04 CET 2021
Sat 13 Feb 17:31:31 CET 2021
Sat 13 Feb 17:31:34 CET 2021
Sat 13 Feb 17:32:01 CET 2021
Sat 13 Feb 17:32:04 CET 2021
Sat 13 Feb 17:32:31 CET 2021
Sat 13 Feb 17:32:34 CET 2021
Sat 13 Feb 17:33:01 CET 2021
Sat 13 Feb 17:33:04 CET 2021
Sat 13 Feb 17:33:31 CET 2021
Sat 13 Feb 17:33:34 CET 2021
Sat 13 Feb 17:34:01 CET 2021
Sat 13 Feb 17:34:04 CET 2021
Sat 13 Feb 17:34:31 CET 2021
Sat 13 Feb 17:34:34 CET 2021
Sat 13 Feb 17:35:01 CET 2021
Sat 13 Feb 17:35:04 CET 2021
Sat 13 Feb 17:35:31 CET 2021
Sat 13 Feb 17:35:34 CET 2021
Sat 13 Feb 17:36:01 CET 2021
Sat 13 Feb 17:36:04 CET 2021
Sat 13 Feb 17:36:31 CET 2021
Sat 13 Feb 17:36:34 CET 2021
Sat 13 Feb 17:37:01 CET 2021
Sat 13 Feb 17:37:04 CET 2021
Sat 13 Feb 17:37:31 CET 2021
Sat 13 Feb 17:37:34 CET 2021
Sat 13 Feb 17:38:01 CET 2021
Sat 13 Feb 17:38:04 CET 2021
Sat 13 Feb 17:38:31 CET 2021
Sat 13 Feb 17:38:34 CET 2021
Sat 13 Feb 17:39:01 CET 2021
Sat 13 Feb 17:39:04 CET 2021
Sat 13 Feb 17:39:31 CET 2021
Sat 13 Feb 17:39:34 CET 2021
Sat 13 Feb 17:40:01 CET 2021
Sat 13 Feb 17:40:04 CET 2021
Sat 13 Feb 17:40:31 CET 2021
Sat 13 Feb 17:40:34 CET 2021
Sat 13 Feb 17:41:01 CET 2021
Sat 13 Feb 17:41:04 CET 2021
Sat 13 Feb 17:41:31 CET 2021
Sat 13 Feb 17:41:34 CET 2021
Sat 13 Feb 17:42:01 CET 2021
Sat 13 Feb 17:42:04 CET 2021
Sat 13 Feb 17:42:31 CET 2021
Sat 13 Feb 17:42:34 CET 2021
Sat 13 Feb 17:43:01 CET 2021
Sat 13 Feb 17:43:04 CET 2021
Sat 13 Feb 17:43:31 CET 2021
Sat 13 Feb 17:43:34 CET 2021
Sat 13 Feb 17:44:01 CET 2021
Sat 13 Feb 17:44:04 CET 2021
Sat 13 Feb 17:44:31 CET 2021
Sat 13 Feb 17:44:34 CET 2021
Sat 13 Feb 17:45:01 CET 2021
Sat 13 Feb 17:45:04 CET 2021
Sat 13 Feb 17:45:31 CET 2021
Sat 13 Feb 17:45:34 CET 2021
Sat 13 Feb 17:46:01 CET 2021
Sat 13 Feb 17:46:04 CET 2021
Sat 13 Feb 17:46:32 CET 2021
Sat 13 Feb 17:46:34 CET 2021
Sat 13 Feb 17:47:02 CET 2021
Sat 13 Feb 17:47:04 CET 2021
Sat 13 Feb 17:47:32 CET 2021
Sat 13 Feb 17:47:34 CET 2021
Sat 13 Feb 17:48:02 CET 2021
Sat 13 Feb 17:48:04 CET 2021
Sat 13 Feb 17:48:32 CET 2021
Sat 13 Feb 17:48:34 CET 2021
Sat 13 Feb 17:49:02 CET 2021
Sat 13 Feb 17:49:04 CET 2021
Sat 13 Feb 17:49:32 CET 2021
Sat 13 Feb 17:49:34 CET 2021
Sat 13 Feb 17:50:02 CET 2021
Sat 13 Feb 17:50:04 CET 2021
Sat 13 Feb 17:50:32 CET 2021
Sat 13 Feb 17:50:34 CET 2021
Sat 13 Feb 17:51:02 CET 2021
Sat 13 Feb 17:51:04 CET 2021
Sat 13 Feb 17:51:32 CET 2021
Sat 13 Feb 17:51:34 CET 2021
Sat 13 Feb 17:52:02 CET 2021
Sat 13 Feb 17:52:04 CET 2021
Sat 13 Feb 17:52:32 CET 2021
Sat 13 Feb 17:52:34 CET 2021
Sat 13 Feb 17:53:02 CET 2021
Sat 13 Feb 17:53:04 CET 2021
Sat 13 Feb 17:53:32 CET 2021
Sat 13 Feb 17:53:34 CET 2021
Sat 13 Feb 17:54:02 CET 2021
Sat 13 Feb 17:54:04 CET 2021
Sat 13 Feb 17:54:32 CET 2021
Sat 13 Feb 17:54:34 CET 2021
Sat 13 Feb 17:55:02 CET 2021
Sat 13 Feb 17:55:04 CET 2021
Sat 13 Feb 17:55:32 CET 2021
Sat 13 Feb 17:55:34 CET 2021
Sat 13 Feb 17:56:02 CET 2021
Sat 13 Feb 17:56:04 CET 2021
Sat 13 Feb 17:56:32 CET 2021
Sat 13 Feb 17:56:34 CET 2021
Sat 13 Feb 17:57:02 CET 2021
Sat 13 Feb 17:57:04 CET 2021
Sat 13 Feb 17:57:32 CET 2021
Sat 13 Feb 17:57:34 CET 2021
Sat 13 Feb 17:58:02 CET 2021
Sat 13 Feb 17:58:04 CET 2021
Sat 13 Feb 17:58:32 CET 2021
Sat 13 Feb 17:58:34 CET 2021
Sat 13 Feb 17:59:02 CET 2021
Sat 13 Feb 17:59:04 CET 2021
Sat 13 Feb 17:59:32 CET 2021
Sat 13 Feb 17:59:34 CET 2021
Sat 13 Feb 18:00:02 CET 2021
Sat 13 Feb 18:00:04 CET 2021
Sat 13 Feb 18:00:32 CET 2021
Sat 13 Feb 18:00:34 CET 2021
Sat 13 Feb 18:01:02 CET 2021
Sat 13 Feb 18:01:04 CET 2021
Sat 13 Feb 18:01:32 CET 2021
Sat 13 Feb 18:01:34 CET 2021
Sat 13 Feb 18:02:02 CET 2021
Sat 13 Feb 18:02:04 CET 2021
Sat 13 Feb 18:02:32 CET 2021
Sat 13 Feb 18:02:34 CET 2021
Sat 13 Feb 18:03:02 CET 2021
Sat 13 Feb 18:03:04 CET 2021
Sat 13 Feb 18:03:32 CET 2021
Sat 13 Feb 18:03:34 CET 2021
Sat 13 Feb 18:04:02 CET 2021
Sat 13 Feb 18:04:04 CET 2021
Sat 13 Feb 18:04:32 CET 2021
Sat 13 Feb 18:04:34 CET 2021
Sat 13 Feb 18:05:02 CET 2021
Sat 13 Feb 18:05:04 CET 2021
Sat 13 Feb 18:05:32 CET 2021
Sat 13 Feb 18:05:34 CET 2021
Sat 13 Feb 18:06:02 CET 2021
Sat 13 Feb 18:06:04 CET 2021
Sat 13 Feb 18:06:32 CET 2021
Sat 13 Feb 18:06:34 CET 2021
Sat 13 Feb 18:07:02 CET 2021
Sat 13 Feb 18:07:04 CET 2021
Sat 13 Feb 18:07:32 CET 2021
Sat 13 Feb 18:07:34 CET 2021
Sat 13 Feb 18:08:02 CET 2021
Sat 13 Feb 18:08:04 CET 2021
Sat 13 Feb 18:08:32 CET 2021
Sat 13 Feb 18:08:34 CET 2021
Sat 13 Feb 18:09:02 CET 2021
Sat 13 Feb 18:09:04 CET 2021
Sat 13 Feb 18:09:32 CET 2021
Sat 13 Feb 18:09:34 CET 2021
Sat 13 Feb 18:10:02 CET 2021
Sat 13 Feb 18:10:04 CET 2021
Sat 13 Feb 18:10:32 CET 2021
Sat 13 Feb 18:10:34 CET 2021
Sat 13 Feb 18:11:02 CET 2021
Sat 13 Feb 18:11:04 CET 2021
Sat 13 Feb 18:11:32 CET 2021
Sat 13 Feb 18:11:34 CET 2021
Sat 13 Feb 18:12:02 CET 2021
Sat 13 Feb 18:12:05 CET 2021
Sat 13 Feb 18:12:32 CET 2021
Sat 13 Feb 18:12:35 CET 2021
Sat 13 Feb 18:13:02 CET 2021
Sat 13 Feb 18:13:05 CET 2021
Sat 13 Feb 18:13:32 CET 2021
Sat 13 Feb 18:13:35 CET 2021
Sat 13 Feb 18:14:02 CET 2021
Sat 13 Feb 18:14:05 CET 2021
Sat 13 Feb 18:14:32 CET 2021
Sat 13 Feb 18:14:35 CET 2021
Sat 13 Feb 18:15:02 CET 2021
Sat 13 Feb 18:15:05 CET 2021
Sat 13 Feb 18:15:32 CET 2021
Sat 13 Feb 18:15:35 CET 2021
Sat 13 Feb 18:16:02 CET 2021
Sat 13 Feb 18:16:05 CET 2021
Sat 13 Feb 18:16:32 CET 2021
Sat 13 Feb 18:16:35 CET 2021
Sat 13 Feb 18:17:02 CET 2021
Sat 13 Feb 18:17:05 CET 2021
Sat 13 Feb 18:17:32 CET 2021
Sat 13 Feb 18:17:35 CET 2021
Sat 13 Feb 18:18:02 CET 2021
Sat 13 Feb 18:18:05 CET 2021
Sat 13 Feb 18:18:32 CET 2021
Sat 13 Feb 18:18:35 CET 2021
Sat 13 Feb 18:19:02 CET 2021
Sat 13 Feb 18:19:05 CET 2021
Sat 13 Feb 18:19:32 CET 2021
Sat 13 Feb 18:19:35 CET 2021
Sat 13 Feb 18:20:02 CET 2021
Sat 13 Feb 18:20:05 CET 2021
Sat 13 Feb 18:20:32 CET 2021
Sat 13 Feb 18:20:35 CET 2021
Sat 13 Feb 18:21:02 CET 2021
Sat 13 Feb 18:21:05 CET 2021
Sat 13 Feb 18:21:32 CET 2021
Sat 13 Feb 18:21:35 CET 2021
Sat 13 Feb 18:22:02 CET 2021
Sat 13 Feb 18:22:05 CET 2021
Sat 13 Feb 18:22:32 CET 2021
Sat 13 Feb 18:22:35 CET 2021
Sat 13 Feb 18:23:02 CET 2021
Sat 13 Feb 18:23:05 CET 2021
Sat 13 Feb 18:23:32 CET 2021
Sat 13 Feb 18:23:35 CET 2021
Sat 13 Feb 18:24:02 CET 2021
Sat 13 Feb 18:24:05 CET 2021
Sat 13 Feb 18:24:32 CET 2021
Sat 13 Feb 18:24:35 CET 2021
Sat 13 Feb 18:25:02 CET 2021
Sat 13 Feb 18:25:05 CET 2021
Sat 13 Feb 18:25:32 CET 2021
Sat 13 Feb 18:25:35 CET 2021
Sat 13 Feb 18:26:02 CET 2021
Sat 13 Feb 18:26:05 CET 2021
Sat 13 Feb 18:26:32 CET 2021
Sat 13 Feb 18:26:35 CET 2021
Sat 13 Feb 18:27:02 CET 2021
Sat 13 Feb 18:27:05 CET 2021
Sat 13 Feb 18:27:32 CET 2021
Sat 13 Feb 18:27:35 CET 2021
Sat 13 Feb 18:28:02 CET 2021
Sat 13 Feb 18:28:05 CET 2021
Sat 13 Feb 18:28:32 CET 2021
Sat 13 Feb 18:28:35 CET 2021
Sat 13 Feb 18:29:02 CET 2021
Sat 13 Feb 18:29:05 CET 2021
Sat 13 Feb 18:29:32 CET 2021
Sat 13 Feb 18:29:35 CET 2021
Sat 13 Feb 18:30:02 CET 2021
Sat 13 Feb 18:30:05 CET 2021
Sat 13 Feb 18:30:32 CET 2021
Sat 13 Feb 18:30:35 CET 2021
Sat 13 Feb 18:31:02 CET 2021
Sat 13 Feb 18:31:05 CET 2021
Sat 13 Feb 18:31:32 CET 2021
Sat 13 Feb 18:31:35 CET 2021
Sat 13 Feb 18:32:02 CET 2021
Sat 13 Feb 18:32:05 CET 2021
Sat 13 Feb 18:32:32 CET 2021
Sat 13 Feb 18:32:35 CET 2021
Sat 13 Feb 18:33:02 CET 2021
Sat 13 Feb 18:33:05 CET 2021
Sat 13 Feb 18:33:32 CET 2021
Sat 13 Feb 18:33:35 CET 2021
Sat 13 Feb 18:34:02 CET 2021
Sat 13 Feb 18:34:05 CET 2021
Sat 13 Feb 18:34:32 CET 2021
Sat 13 Feb 18:34:35 CET 2021
Sat 13 Feb 18:35:02 CET 2021
Sat 13 Feb 18:35:05 CET 2021
Sat 13 Feb 18:35:32 CET 2021
Sat 13 Feb 18:35:35 CET 2021
